info face="Exo Regular" size=16 bold=0 italic=0 charset="" unicode=0 stretchH=100 smooth=1 aa=1 padding=1,1,1,1 spacing=-2,-2
common lineHeight=17 base=13 scaleW=512 scaleH=512 pages=1 packed=0
page id=0 file="Exo16.png"
chars count=119
char id=10    x=0    y=0    width=0    height=0    xoffset=0    yoffset=0    xadvance=0    page=0    chnl=0 
char id=32    x=0    y=0    width=0    height=0    xoffset=-1   yoffset=16   xadvance=4    page=0    chnl=0 
char id=33    x=164  y=21   width=4    height=14   xoffset=-1   yoffset=4    xadvance=3    page=0    chnl=0 
char id=34    x=22   y=35   width=6    height=5    xoffset=0    yoffset=4    xadvance=6    page=0    chnl=0 
char id=35    x=195  y=21   width=13   height=14   xoffset=-1   yoffset=4    xadvance=11   page=0    chnl=0 
char id=36    x=94   y=0    width=10   height=18   xoffset=-1   yoffset=2    xadvance=9    page=0    chnl=0 
char id=37    x=178  y=21   width=17   height=14   xoffset=-1   yoffset=4    xadvance=16   page=0    chnl=0 
char id=38    x=209  y=0    width=12   height=16   xoffset=-1   yoffset=3    xadvance=10   page=0    chnl=0 
char id=39    x=28   y=35   width=4    height=5    xoffset=-1   yoffset=4    xadvance=3    page=0    chnl=0 
char id=40    x=28   y=0    width=7    height=20   xoffset=-1   yoffset=2    xadvance=5    page=0    chnl=0 
char id=41    x=35   y=0    width=6    height=20   xoffset=-1   yoffset=2    xadvance=5    page=0    chnl=0 
char id=42    x=0    y=35   width=9    height=8    xoffset=-1   yoffset=4    xadvance=7    page=0    chnl=0 
char id=43    x=491  y=21   width=9    height=9    xoffset=0    yoffset=7    xadvance=9    page=0    chnl=0 
char id=44    x=9    y=35   width=4    height=6    xoffset=0    yoffset=14   xadvance=4    page=0    chnl=0 
char id=45    x=32   y=35   width=7    height=5    xoffset=0    yoffset=10   xadvance=7    page=0    chnl=0 
char id=46    x=57   y=35   width=4    height=4    xoffset=0    yoffset=14   xadvance=4    page=0    chnl=0 
char id=47    x=191  y=0    width=9    height=16   xoffset=-1   yoffset=3    xadvance=6    page=0    chnl=0 
char id=48    x=153  y=21   width=11   height=14   xoffset=-1   yoffset=4    xadvance=10   page=0    chnl=0 
char id=49    x=62   y=21   width=6    height=14   xoffset=-1   yoffset=4    xadvance=5    page=0    chnl=0 
char id=50    x=68   y=21   width=10   height=14   xoffset=0    yoffset=4    xadvance=10   page=0    chnl=0 
char id=51    x=78   y=21   width=10   height=14   xoffset=-1   yoffset=4    xadvance=9    page=0    chnl=0 
char id=52    x=88   y=21   width=12   height=14   xoffset=-1   yoffset=4    xadvance=10   page=0    chnl=0 
char id=53    x=100  y=21   width=10   height=14   xoffset=0    yoffset=4    xadvance=10   page=0    chnl=0 
char id=54    x=110  y=21   width=11   height=14   xoffset=-1   yoffset=4    xadvance=10   page=0    chnl=0 
char id=55    x=121  y=21   width=10   height=14   xoffset=-1   yoffset=4    xadvance=9    page=0    chnl=0 
char id=56    x=131  y=21   width=11   height=14   xoffset=-1   yoffset=4    xadvance=10   page=0    chnl=0 
char id=57    x=142  y=21   width=11   height=14   xoffset=-1   yoffset=4    xadvance=10   page=0    chnl=0 
char id=58    x=351  y=21   width=4    height=11   xoffset=0    yoffset=7    xadvance=4    page=0    chnl=0 
char id=59    x=208  y=21   width=4    height=13   xoffset=0    yoffset=7    xadvance=4    page=0    chnl=0 
char id=60    x=363  y=21   width=8    height=10   xoffset=0    yoffset=6    xadvance=8    page=0    chnl=0 
char id=61    x=500  y=21   width=9    height=9    xoffset=0    yoffset=6    xadvance=9    page=0    chnl=0 
char id=62    x=371  y=21   width=8    height=10   xoffset=0    yoffset=6    xadvance=8    page=0    chnl=0 
char id=63    x=168  y=21   width=10   height=14   xoffset=-1   yoffset=4    xadvance=9    page=0    chnl=0 
char id=64    x=45   y=0    width=14   height=19   xoffset=-1   yoffset=3    xadvance=13   page=0    chnl=0 
char id=65    x=288  y=0    width=13   height=14   xoffset=-1   yoffset=4    xadvance=11   page=0    chnl=0 
char id=66    x=301  y=0    width=10   height=14   xoffset=-1   yoffset=4    xadvance=9    page=0    chnl=0 
char id=67    x=311  y=0    width=11   height=14   xoffset=-1   yoffset=4    xadvance=9    page=0    chnl=0 
char id=68    x=322  y=0    width=11   height=14   xoffset=-1   yoffset=4    xadvance=10   page=0    chnl=0 
char id=69    x=333  y=0    width=10   height=14   xoffset=-1   yoffset=4    xadvance=9    page=0    chnl=0 
char id=70    x=343  y=0    width=10   height=14   xoffset=-1   yoffset=4    xadvance=9    page=0    chnl=0 
char id=71    x=353  y=0    width=11   height=14   xoffset=-1   yoffset=4    xadvance=10   page=0    chnl=0 
char id=72    x=364  y=0    width=11   height=14   xoffset=-1   yoffset=4    xadvance=10   page=0    chnl=0 
char id=73    x=375  y=0    width=4    height=14   xoffset=-1   yoffset=4    xadvance=3    page=0    chnl=0 
char id=74    x=379  y=0    width=7    height=14   xoffset=-1   yoffset=4    xadvance=6    page=0    chnl=0 
char id=75    x=386  y=0    width=11   height=14   xoffset=-1   yoffset=4    xadvance=9    page=0    chnl=0 
char id=76    x=397  y=0    width=10   height=14   xoffset=-1   yoffset=4    xadvance=8    page=0    chnl=0 
char id=77    x=407  y=0    width=14   height=14   xoffset=-1   yoffset=4    xadvance=12   page=0    chnl=0 
char id=78    x=421  y=0    width=11   height=14   xoffset=-1   yoffset=4    xadvance=10   page=0    chnl=0 
char id=79    x=432  y=0    width=12   height=14   xoffset=-1   yoffset=4    xadvance=11   page=0    chnl=0 
char id=80    x=444  y=0    width=10   height=14   xoffset=-1   yoffset=4    xadvance=9    page=0    chnl=0 
char id=81    x=104  y=0    width=12   height=17   xoffset=-1   yoffset=4    xadvance=11   page=0    chnl=0 
char id=82    x=454  y=0    width=12   height=14   xoffset=-1   yoffset=4    xadvance=10   page=0    chnl=0 
char id=83    x=466  y=0    width=10   height=14   xoffset=-1   yoffset=4    xadvance=9    page=0    chnl=0 
char id=84    x=476  y=0    width=10   height=14   xoffset=0    yoffset=4    xadvance=10   page=0    chnl=0 
char id=85    x=486  y=0    width=11   height=14   xoffset=-1   yoffset=4    xadvance=10   page=0    chnl=0 
char id=86    x=497  y=0    width=13   height=14   xoffset=-1   yoffset=4    xadvance=11   page=0    chnl=0 
char id=87    x=0    y=21   width=17   height=14   xoffset=-1   yoffset=4    xadvance=15   page=0    chnl=0 
char id=88    x=17   y=21   width=12   height=14   xoffset=-1   yoffset=4    xadvance=10   page=0    chnl=0 
char id=89    x=29   y=21   width=12   height=14   xoffset=0    yoffset=4    xadvance=10   page=0    chnl=0 
char id=90    x=41   y=21   width=10   height=14   xoffset=0    yoffset=4    xadvance=10   page=0    chnl=0 
char id=91    x=0    y=0    width=7    height=21   xoffset=0    yoffset=1    xadvance=6    page=0    chnl=0 
char id=92    x=200  y=0    width=9    height=16   xoffset=-1   yoffset=3    xadvance=6    page=0    chnl=0 
char id=93    x=7    y=0    width=6    height=21   xoffset=-1   yoffset=1    xadvance=5    page=0    chnl=0 
char id=94    x=61   y=35   width=8    height=4    xoffset=-1   yoffset=5    xadvance=6    page=0    chnl=0 
char id=95    x=39   y=35   width=12   height=5    xoffset=0    yoffset=14   xadvance=12   page=0    chnl=0 
char id=96    x=51   y=35   width=6    height=4    xoffset=-1   yoffset=5    xadvance=4    page=0    chnl=0 
char id=97    x=212  y=21   width=10   height=11   xoffset=-1   yoffset=7    xadvance=9    page=0    chnl=0 
char id=98    x=221  y=0    width=10   height=15   xoffset=-1   yoffset=3    xadvance=9    page=0    chnl=0 
char id=99    x=222  y=21   width=10   height=11   xoffset=-1   yoffset=7    xadvance=8    page=0    chnl=0 
char id=100   x=116  y=0    width=10   height=16   xoffset=-1   yoffset=2    xadvance=9    page=0    chnl=0 
char id=101   x=232  y=21   width=10   height=11   xoffset=-1   yoffset=7    xadvance=9    page=0    chnl=0 
char id=102   x=126  y=0    width=8    height=16   xoffset=0    yoffset=2    xadvance=7    page=0    chnl=0 
char id=103   x=134  y=0    width=11   height=16   xoffset=-1   yoffset=7    xadvance=9    page=0    chnl=0 
char id=104   x=231  y=0    width=10   height=15   xoffset=-1   yoffset=3    xadvance=9    page=0    chnl=0 
char id=105   x=51   y=21   width=4    height=14   xoffset=-1   yoffset=4    xadvance=3    page=0    chnl=0 
char id=106   x=41   y=0    width=4    height=19   xoffset=-1   yoffset=4    xadvance=3    page=0    chnl=0 
char id=107   x=241  y=0    width=10   height=15   xoffset=-1   yoffset=3    xadvance=8    page=0    chnl=0 
char id=108   x=251  y=0    width=7    height=15   xoffset=-1   yoffset=3    xadvance=5    page=0    chnl=0 
char id=109   x=242  y=21   width=16   height=11   xoffset=-1   yoffset=7    xadvance=15   page=0    chnl=0 
char id=110   x=258  y=21   width=10   height=11   xoffset=-1   yoffset=7    xadvance=9    page=0    chnl=0 
char id=111   x=268  y=21   width=10   height=11   xoffset=-1   yoffset=7    xadvance=9    page=0    chnl=0 
char id=112   x=145  y=0    width=10   height=16   xoffset=-1   yoffset=7    xadvance=9    page=0    chnl=0 
char id=113   x=155  y=0    width=10   height=16   xoffset=-1   yoffset=7    xadvance=9    page=0    chnl=0 
char id=114   x=278  y=21   width=9    height=11   xoffset=-1   yoffset=7    xadvance=7    page=0    chnl=0 
char id=115   x=287  y=21   width=10   height=11   xoffset=-1   yoffset=7    xadvance=9    page=0    chnl=0 
char id=116   x=55   y=21   width=7    height=14   xoffset=0    yoffset=4    xadvance=7    page=0    chnl=0 
char id=117   x=297  y=21   width=10   height=11   xoffset=-1   yoffset=7    xadvance=9    page=0    chnl=0 
char id=118   x=307  y=21   width=11   height=11   xoffset=-1   yoffset=7    xadvance=9    page=0    chnl=0 
char id=119   x=318  y=21   width=15   height=11   xoffset=-1   yoffset=7    xadvance=13   page=0    chnl=0 
char id=120   x=333  y=21   width=10   height=11   xoffset=-1   yoffset=7    xadvance=8    page=0    chnl=0 
char id=121   x=165  y=0    width=11   height=16   xoffset=-1   yoffset=7    xadvance=9    page=0    chnl=0 
char id=122   x=343  y=21   width=8    height=11   xoffset=0    yoffset=7    xadvance=8    page=0    chnl=0 
char id=123   x=13   y=0    width=7    height=21   xoffset=-1   yoffset=1    xadvance=5    page=0    chnl=0 
char id=124   x=187  y=0    width=4    height=16   xoffset=0    yoffset=3    xadvance=4    page=0    chnl=0 
char id=125   x=20   y=0    width=8    height=21   xoffset=-1   yoffset=1    xadvance=6    page=0    chnl=0 
char id=126   x=13   y=35   width=9    height=6    xoffset=-1   yoffset=4    xadvance=7    page=0    chnl=0 
char id=178   x=379  y=21   width=8    height=9    xoffset=-1   yoffset=2    xadvance=7    page=0    chnl=0 
char id=179   x=387  y=21   width=8    height=9    xoffset=-1   yoffset=2    xadvance=7    page=0    chnl=0 
char id=196   x=59   y=0    width=12   height=18   xoffset=-1   yoffset=0    xadvance=10   page=0    chnl=0 
char id=214   x=71   y=0    width=12   height=18   xoffset=-1   yoffset=0    xadvance=11   page=0    chnl=0 
char id=220   x=83   y=0    width=11   height=18   xoffset=-1   yoffset=0    xadvance=10   page=0    chnl=0 
char id=223   x=176  y=0    width=11   height=16   xoffset=-1   yoffset=2    xadvance=10   page=0    chnl=0 
char id=228   x=258  y=0    width=10   height=15   xoffset=-1   yoffset=3    xadvance=9    page=0    chnl=0 
char id=246   x=268  y=0    width=10   height=15   xoffset=-1   yoffset=3    xadvance=9    page=0    chnl=0 
char id=252   x=278  y=0    width=10   height=15   xoffset=-1   yoffset=3    xadvance=9    page=0    chnl=0 
char id=8308  x=395  y=21   width=9    height=9    xoffset=-2   yoffset=2    xadvance=6    page=0    chnl=0 
char id=8309  x=404  y=21   width=8    height=9    xoffset=-1   yoffset=2    xadvance=7    page=0    chnl=0 
char id=8310  x=355  y=21   width=8    height=10   xoffset=0    yoffset=1    xadvance=8    page=0    chnl=0 
char id=8311  x=412  y=21   width=8    height=9    xoffset=-1   yoffset=2    xadvance=6    page=0    chnl=0 
char id=8312  x=420  y=21   width=7    height=9    xoffset=0    yoffset=2    xadvance=7    page=0    chnl=0 
char id=8313  x=427  y=21   width=8    height=9    xoffset=0    yoffset=2    xadvance=8    page=0    chnl=0 
char id=8322  x=435  y=21   width=8    height=9    xoffset=-1   yoffset=12   xadvance=7    page=0    chnl=0 
char id=8323  x=443  y=21   width=8    height=9    xoffset=-1   yoffset=12   xadvance=7    page=0    chnl=0 
char id=8324  x=451  y=21   width=9    height=9    xoffset=-2   yoffset=12   xadvance=6    page=0    chnl=0 
char id=8325  x=460  y=21   width=8    height=9    xoffset=-1   yoffset=12   xadvance=7    page=0    chnl=0 
char id=8326  x=468  y=21   width=8    height=9    xoffset=0    yoffset=12   xadvance=8    page=0    chnl=0 
char id=8327  x=412  y=21   width=8    height=9    xoffset=-1   yoffset=12   xadvance=6    page=0    chnl=0 
char id=8328  x=476  y=21   width=7    height=9    xoffset=0    yoffset=12   xadvance=7    page=0    chnl=0 
char id=8329  x=483  y=21   width=8    height=9    xoffset=0    yoffset=12   xadvance=8    page=0    chnl=0 
kernings count=316
kerning first=87 second=117 amount=-1
kerning first=86 second=69 amount=-1
kerning first=246 second=70 amount=-1
kerning first=196 second=71 amount=-1
kerning first=80 second=88 amount=-1
kerning first=84 second=102 amount=-1
kerning first=84 second=121 amount=-2
kerning first=86 second=65 amount=-2
kerning first=86 second=81 amount=-1
kerning first=120 second=99 amount=-1
kerning first=108 second=118 amount=-1
kerning first=214 second=86 amount=-1
kerning first=89 second=103 amount=-1
kerning first=76 second=116 amount=-1
kerning first=89 second=196 amount=-2
kerning first=86 second=46 amount=-2
kerning first=88 second=81 amount=-1
kerning first=111 second=44 amount=-1
kerning first=70 second=74 amount=-1
kerning first=89 second=122 amount=-1
kerning first=75 second=214 amount=-1
kerning first=84 second=252 amount=-2
kerning first=88 second=111 amount=-1
kerning first=76 second=39 amount=-1
kerning first=112 second=39 amount=-1
kerning first=84 second=120 amount=-2
kerning first=87 second=46 amount=-2
kerning first=88 second=70 amount=-1
kerning first=87 second=65 amount=-2
kerning first=84 second=100 amount=-3
kerning first=89 second=117 amount=-1
kerning first=88 second=69 amount=-1
kerning first=86 second=103 amount=-1
kerning first=89 second=121 amount=-1
kerning first=98 second=39 amount=-1
kerning first=65 second=79 amount=-1
kerning first=220 second=44 amount=-1
kerning first=246 second=39 amount=-1
kerning first=87 second=228 amount=-1
kerning first=65 second=39 amount=-1
kerning first=220 second=196 amount=-1
kerning first=98 second=69 amount=-1
kerning first=85 second=46 amount=-1
kerning first=88 second=71 amount=-1
kerning first=89 second=65 amount=-2
kerning first=87 second=97 amount=-1
kerning first=89 second=44 amount=-2
kerning first=84 second=101 amount=-3
kerning first=81 second=86 amount=-1
kerning first=67 second=101 amount=-1
kerning first=98 second=120 amount=-1
kerning first=81 second=44 amount=-1
kerning first=75 second=67 amount=-1
kerning first=214 second=196 amount=-1
kerning first=88 second=246 amount=-1
kerning first=65 second=118 amount=-1
kerning first=86 second=122 amount=-1
kerning first=115 second=58 amount=-1
kerning first=114 second=44 amount=-2
kerning first=87 second=115 amount=-1
kerning first=84 second=97 amount=-2
kerning first=85 second=44 amount=-1
kerning first=86 second=214 amount=-1
kerning first=114 second=46 amount=-2
kerning first=76 second=246 amount=-1
kerning first=220 second=46 amount=-1
kerning first=75 second=81 amount=-1
kerning first=89 second=46 amount=-2
kerning first=87 second=100 amount=-2
kerning first=67 second=99 amount=-1
kerning first=104 second=39 amount=-1
kerning first=196 second=118 amount=-1
kerning first=84 second=246 amount=-3
kerning first=87 second=246 amount=-2
kerning first=76 second=113 amount=-1
kerning first=84 second=115 amount=-2
kerning first=84 second=228 amount=-2
kerning first=76 second=100 amount=-1
kerning first=214 second=46 amount=-1
kerning first=214 second=65 amount=-1
kerning first=79 second=89 amount=-1
kerning first=214 second=89 amount=-1
kerning first=70 second=44 amount=-2
kerning first=70 second=97 amount=-1
kerning first=86 second=196 amount=-2
kerning first=87 second=113 amount=-2
kerning first=89 second=214 amount=-1
kerning first=214 second=87 amount=-1
kerning first=80 second=74 amount=-2
kerning first=84 second=117 amount=-2
kerning first=87 second=122 amount=-1
kerning first=65 second=214 amount=-1
kerning first=86 second=109 amount=-1
kerning first=196 second=85 amount=-1
kerning first=102 second=45 amount=-1
kerning first=112 second=120 amount=-1
kerning first=65 second=71 amount=-1
kerning first=84 second=65 amount=-2
kerning first=84 second=44 amount=-1
kerning first=86 second=100 amount=-2
kerning first=246 second=120 amount=-1
kerning first=89 second=69 amount=-1
kerning first=68 second=89 amount=-1
kerning first=89 second=118 amount=-1
kerning first=84 second=114 amount=-2
kerning first=102 second=103 amount=-1
kerning first=89 second=109 amount=-1
kerning first=220 second=65 amount=-1
kerning first=89 second=99 amount=-2
kerning first=65 second=83 amount=-1
kerning first=102 second=46 amount=-2
kerning first=103 second=44 amount=-1
kerning first=87 second=74 amount=-1
kerning first=120 second=113 amount=-1
kerning first=84 second=113 amount=-3
kerning first=87 second=44 amount=-2
kerning first=196 second=214 amount=-1
kerning first=76 second=84 amount=-2
kerning first=112 second=69 amount=-1
kerning first=98 second=44 amount=-1
kerning first=196 second=83 amount=-1
kerning first=84 second=122 amount=-1
kerning first=75 second=100 amount=-1
kerning first=89 second=252 amount=-1
kerning first=65 second=84 amount=-2
kerning first=76 second=102 amount=-1
kerning first=86 second=112 amount=-1
kerning first=81 second=196 amount=-1
kerning first=70 second=196 amount=-1
kerning first=89 second=100 amount=-2
kerning first=75 second=121 amount=-1
kerning first=76 second=119 amount=-1
kerning first=112 second=70 amount=-1
kerning first=196 second=84 amount=-2
kerning first=196 second=79 amount=-1
kerning first=108 second=99 amount=-1
kerning first=87 second=110 amount=-1
kerning first=84 second=116 amount=-1
kerning first=112 second=44 amount=-1
kerning first=87 second=101 amount=-2
kerning first=75 second=99 amount=-1
kerning first=196 second=119 amount=-1
kerning first=81 second=87 amount=-1
kerning first=246 second=44 amount=-1
kerning first=67 second=113 amount=-1
kerning first=76 second=118 amount=-1
kerning first=68 second=44 amount=-1
kerning first=88 second=67 amount=-1
kerning first=196 second=39 amount=-1
kerning first=98 second=70 amount=-1
kerning first=67 second=100 amount=-1
kerning first=81 second=65 amount=-1
kerning first=84 second=196 amount=-2
kerning first=108 second=121 amount=-1
kerning first=76 second=101 amount=-1
kerning first=84 second=118 amount=-2
kerning first=89 second=112 amount=-1
kerning first=87 second=214 amount=-1
kerning first=87 second=114 amount=-1
kerning first=79 second=44 amount=-1
kerning first=84 second=74 amount=-1
kerning first=84 second=109 amount=-2
kerning first=119 second=46 amount=-1
kerning first=88 second=101 amount=-1
kerning first=70 second=65 amount=-1
kerning first=68 second=65 amount=-1
kerning first=88 second=100 amount=-1
kerning first=89 second=101 amount=-2
kerning first=196 second=86 amount=-2
kerning first=76 second=87 amount=-1
kerning first=86 second=114 amount=-1
kerning first=89 second=113 amount=-2
kerning first=118 second=44 amount=-1
kerning first=86 second=117 amount=-1
kerning first=68 second=46 amount=-1
kerning first=65 second=87 amount=-2
kerning first=76 second=220 amount=-1
kerning first=86 second=115 amount=-1
kerning first=120 second=100 amount=-1
kerning first=65 second=86 amount=-2
kerning first=75 second=246 amount=-1
kerning first=87 second=81 amount=-1
kerning first=120 second=101 amount=-1
kerning first=89 second=74 amount=-1
kerning first=87 second=67 amount=-1
kerning first=119 second=44 amount=-1
kerning first=111 second=46 amount=-1
kerning first=79 second=46 amount=-1
kerning first=86 second=252 amount=-1
kerning first=84 second=110 amount=-2
kerning first=85 second=196 amount=-1
kerning first=86 second=113 amount=-2
kerning first=88 second=79 amount=-1
kerning first=88 second=214 amount=-1
kerning first=120 second=246 amount=-1
kerning first=89 second=81 amount=-1
kerning first=76 second=86 amount=-2
kerning first=65 second=85 amount=-1
kerning first=246 second=46 amount=-1
kerning first=75 second=113 amount=-1
kerning first=86 second=246 amount=-2
kerning first=87 second=109 amount=-1
kerning first=108 second=116 amount=-1
kerning first=118 second=46 amount=-1
kerning first=108 second=246 amount=-1
kerning first=87 second=196 amount=-2
kerning first=84 second=111 amount=-3
kerning first=120 second=111 amount=-1
kerning first=76 second=85 amount=-1
kerning first=89 second=110 amount=-1
kerning first=108 second=113 amount=-1
kerning first=86 second=44 amount=-2
kerning first=79 second=196 amount=-1
kerning first=76 second=89 amount=-1
kerning first=68 second=87 amount=-1
kerning first=89 second=246 amount=-2
kerning first=108 second=111 amount=-1
kerning first=121 second=44 amount=-1
kerning first=88 second=121 amount=-1
kerning first=65 second=220 amount=-1
kerning first=87 second=111 amount=-2
kerning first=89 second=114 amount=-1
kerning first=89 second=116 amount=-1
kerning first=196 second=67 amount=-1
kerning first=121 second=46 amount=-1
kerning first=111 second=39 amount=-1
kerning first=89 second=70 amount=-1
kerning first=87 second=71 amount=-1
kerning first=88 second=99 amount=-1
kerning first=108 second=100 amount=-1
kerning first=76 second=111 amount=-1
kerning first=75 second=118 amount=-1
kerning first=196 second=89 amount=-2
kerning first=88 second=119 amount=-1
kerning first=68 second=196 amount=-1
kerning first=65 second=67 amount=-1
kerning first=196 second=220 amount=-1
kerning first=65 second=89 amount=-2
kerning first=79 second=65 amount=-1
kerning first=65 second=121 amount=-1
kerning first=75 second=101 amount=-1
kerning first=86 second=70 amount=-1
kerning first=70 second=228 amount=-1
kerning first=109 second=39 amount=-1
kerning first=81 second=46 amount=-1
kerning first=196 second=81 amount=-1
kerning first=80 second=196 amount=-1
kerning first=84 second=99 amount=-3
kerning first=87 second=112 amount=-1
kerning first=111 second=70 amount=-1
kerning first=102 second=44 amount=-2
kerning first=108 second=101 amount=-1
kerning first=75 second=119 amount=-1
kerning first=76 second=121 amount=-1
kerning first=89 second=79 amount=-1
kerning first=84 second=103 amount=-2
kerning first=65 second=81 amount=-1
kerning first=86 second=99 amount=-2
kerning first=86 second=110 amount=-1
kerning first=70 second=46 amount=-2
kerning first=84 second=46 amount=-1
kerning first=84 second=119 amount=-2
kerning first=111 second=120 amount=-1
kerning first=86 second=74 amount=-1
kerning first=86 second=101 amount=-2
kerning first=86 second=111 amount=-2
kerning first=86 second=71 amount=-1
kerning first=89 second=119 amount=-1
kerning first=86 second=79 amount=-1
kerning first=89 second=97 amount=-2
kerning first=89 second=67 amount=-1
kerning first=110 second=39 amount=-1
kerning first=88 second=113 amount=-1
kerning first=84 second=112 amount=-2
kerning first=80 second=65 amount=-1
kerning first=115 second=59 amount=-1
kerning first=80 second=44 amount=-3
kerning first=246 second=69 amount=-1
kerning first=75 second=111 amount=-1
kerning first=70 second=103 amount=-1
kerning first=111 second=69 amount=-1
kerning first=75 second=79 amount=-1
kerning first=89 second=120 amount=-1
kerning first=87 second=252 amount=-1
kerning first=86 second=97 amount=-1
kerning first=214 second=44 amount=-1
kerning first=89 second=115 amount=-1
kerning first=98 second=46 amount=-1
kerning first=89 second=228 amount=-2
kerning first=86 second=67 amount=-1
kerning first=85 second=65 amount=-1
kerning first=87 second=99 amount=-2
kerning first=67 second=111 amount=-1
kerning first=89 second=111 amount=-2
kerning first=67 second=246 amount=-1
kerning first=103 second=46 amount=-1
kerning first=196 second=87 amount=-2
kerning first=75 second=71 amount=-1
kerning first=108 second=102 amount=-1
kerning first=108 second=119 amount=-1
kerning first=68 second=86 amount=-1
kerning first=87 second=79 amount=-1
kerning first=89 second=71 amount=-1
kerning first=80 second=46 amount=-3
kerning first=112 second=46 amount=-1
kerning first=102 second=61 amount=-1
kerning first=89 second=102 amount=-1
kerning first=79 second=87 amount=-1
kerning first=88 second=118 amount=-1
kerning first=196 second=121 amount=-1
kerning first=81 second=89 amount=-1
kerning first=79 second=86 amount=-1
kerning first=65 second=119 amount=-1
kerning first=87 second=103 amount=-1
kerning first=76 second=99 amount=-1
kerning first=86 second=228 amount=-1
