[
	{
		size: { x: 64, y: 64 }
		position: { x: 0, y: 0 }
		shortName: "Mixed Tank"
		longName: "Tanks for gases and liquids"
		allConnections: [
			{ localPosition: { x: 0, y: 16 }, direction: WEST }
			{ localPosition: { x: 16, y: 0 }, direction: SOUTH }
			{ localPosition: { x: 48, y: 0 }, direction: SOUTH }
			{ localPosition: { x: 64, y: 16 }, direction: EAST }
		]
		textureRegion: { x: 0, y: 64, width: 64, height: 64 }
		storages: [
			{
				limit: 100, sum: 0, allowedCategories: 1, type: 2
				keys: []
				values: []
			}
			{
				limit: 100, sum: 0, allowedCategories: 2, type: 2
				keys: []
				values: []
			}
		]
		buildCost: [
			{ resource: Metal, amount: 6}
			{ resource: Electronics, amount: 3}
			{ resource: Plastic, amount: 1}
		]
	}
	
	{
		size: { x: 64, y: 64 }
		position: { x: 0, y: 0 }
		shortName: "Gas Tank"
		longName: "Tank exclusively used for gases."
		allConnections: [
			{ localPosition: { x: 0, y: 16 }, direction: WEST }
			{ localPosition: { x: 16, y: 0 }, direction: SOUTH }
			{ localPosition: { x: 48, y: 0 }, direction: SOUTH }
			{ localPosition: { x: 64, y: 16 }, direction: EAST }
		]
		textureRegion: { x: 64, y: 64, width: 64, height: 64 }
		storages: [
			{
				limit: 200, sum: 0, allowedCategories: 1, type: 2
				keys: []
				values: []
			}
		]
		buildCost: [
			{ resource: Metal, amount: 5}
			{ resource: Electronics, amount: 2}
			{ resource: Plastic, amount: 1}
		]
	}
	
	{
		size: { x: 64, y: 64 }
		position: { x: 0, y: 0 }
		shortName: "Liquid Tank"
		longName: "Tank exclusively used for liquids."
		allConnections: [
			{ localPosition: { x: 0, y: 16 }, direction: WEST }
			{ localPosition: { x: 16, y: 0 }, direction: SOUTH }
			{ localPosition: { x: 48, y: 0 }, direction: SOUTH }
			{ localPosition: { x: 64, y: 16 }, direction: EAST }
		]
		textureRegion: { x: 128, y: 64, width: 64, height: 64 }
		storages: [
			{
				limit: 200, sum: 0, allowedCategories: 2, type: 2
				keys: []
				values: []
			}
		]
		buildCost: [
			{ resource: Metal, amount: 5}
			{ resource: Electronics, amount: 2}
			{ resource: Plastic, amount: 1}
		]
	}
	
	{
		size: { x: 64, y: 64 }
		position: { x: 0, y: 0 }
		shortName: "Storage"
		longName: "Storage for all kinds of solid resources."
		allConnections: [
			{ localPosition: { x: 0, y: 16 }, direction: WEST }
			{ localPosition: { x: 16, y: 0 }, direction: SOUTH }
			{ localPosition: { x: 48, y: 0 }, direction: SOUTH }
			{ localPosition: { x: 64, y: 16 }, direction: EAST }
		]
		textureRegion: { x: 192, y: 64, width: 64, height: 64 }
		storages: [
			{
				limit: 200, sum: 0, allowedCategories: 12, type: 2
				keys: []
				values: []
			}
		]
		buildCost: [
			{ resource: Metal, amount: 8}
		]
	}
	
	{
		size: { x: 64, y: 64 }
		position: { x: 0, y: 0 }
		shortName: "Energy Cell"
		longName: "Energy storage unit"
		allConnections: [
			{ localPosition: { x: 0, y: 16 }, direction: WEST }
			{ localPosition: { x: 16, y: 0 }, direction: SOUTH }
			{ localPosition: { x: 48, y: 0 }, direction: SOUTH }
			{ localPosition: { x: 64, y: 16 }, direction: EAST }
		]
		textureRegion: { x: 320, y: 64, width: 64, height: 64 }
		storages: [
			{
				limit: 200, sum: 0, allowedCategories: 16, type: 2
				keys: []
				values: []
			}
		]
		buildCost: [
			{ resource: Metal, amount: 4}
			{ resource: Electronics, amount: 8}
			{ resource: Plastic, amount: 2}
		]
	}
]